var data = [
					{name: 'goal-A', all_input: [1, 0, 1, 0, 1, 0], displayed_input:[1, 0], displayed_output: [1, 0, 1]},
					{name: 'goal-B', all_input: [1, 1, 0, 0, 1, 1], displayed_input:[1, 1], displayed_output: [1, 1, 0]},
					{name: 'goal-C', all_input: [1, 1, 1, 0, 0, 0], displayed_input:[0, 0], displayed_output: [0, 0, 1]},
				];



				{goal_id: 'goal-B', calendar_id: '2018-6-23', numerator_hours: 3, denominator_hours: 4},
					{goal_id: 'goal-B', calendar_id: '2018-6-24', numerator_hours: 2, denominator_hours: 3},
					{goal_id: 'goal-B', calendar_id: '2018-6-27', numerator_hours: 3, denominator_hours: 4},
					{goal_id: 'goal-B', calendar_id: '2018-6-28', numerator_hours: 2, denominator_hours: 3},
					{goal_id: 'goal-C', calendar_id: '2018-6-23', numerator_hours: 2, denominator_hours: 3},
					{goal_id: 'goal-C', calendar_id: '2018-6-24', numerator_hours: 2, denominator_hours: 3},
					{goal_id: 'goal-C', calendar_id: '2018-6-25', numerator_hours: 2, denominator_hours: 3},